Digital_Design/FinalExam/bench/verilog/BTN_Control.vcd
$date
	Sun Apr 23 12:15:26 2023
$end
$version
	Icarus Verilog
$end
$timescale
	1s
$end
$scope module testbench $end
$var wire 3 ! sel [2:0] $end
$var reg 1 " btn $end
$var reg 1 # clk $end
$var reg 1 $ reset $end
$var integer 32 % np [31:0] $end
$var integer 32 & seed [31:0] $end
$scope module BTNC $end
$var wire 1 " btn $end
$var wire 1 # clk $end
$var wire 1 $ reset $end
$var reg 4 ' counter [3:0] $end
$var reg 3 ( current_state [2:0] $end
$var reg 3 ) next_state [2:0] $end
$var reg 3 * sel [2:0] $end
$upscope $end
$upscope $end
$enddefinitions $end
#20
$dumpvars
b0 *
b0 )
b0 (
b0 '
b1 &
b1100011 %
0$
0#
0"
b0 !
$end
#40
1#
b1100010 %
#60
0#
b1100001 %
#80
1#
b1100000 %
#100
b1 '
0#
b1011111 %
1"
#120
b1 )
1#
b1011110 %
#140
0#
b1011101 %
#160
b1 !
b1 *
b1 (
1#
b1011100 %
#180
0#
b1011011 %
#200
1#
b1011010 %
0"
#220
0#
b1011001 %
#240
1#
b1011000 %
#260
0#
b1010111 %
#280
1#
b1010110 %
#300
b10 '
0#
b1010101 %
1"
#320
b10 )
1#
b1010100 %
#340
0#
b1010011 %
#360
b10 !
b10 *
b10 (
1#
b1010010 %
#380
0#
b1010001 %
#400
1#
b1010000 %
0"
#420
0#
b1001111 %
#440
1#
b1001110 %
#460
0#
b1001101 %
#480
1#
b1001100 %
#500
b11 '
0#
b1001011 %
1"
#520
b11 )
1#
b1001010 %
#540
0#
b1001001 %
#560
b11 !
b11 *
b11 (
1#
b1001000 %
#580
0#
b1000111 %
#600
1#
b1000110 %
0"
#620
0#
b1000101 %
#640
1#
b1000100 %
#660
0#
b1000011 %
#680
1#
b1000010 %
#700
b100 '
0#
b1000001 %
1"
#720
b100 )
1#
b1000000 %
#740
0#
b111111 %
#760
b100 !
b100 *
b100 (
1#
b111110 %
#780
0#
b111101 %
#800
1#
b111100 %
0"
#820
0#
b111011 %
#840
1#
b111010 %
#860
0#
b111001 %
#880
1#
b111000 %
#900
b101 '
0#
b110111 %
1"
#920
b101 )
1#
b110110 %
#940
0#
b110101 %
#960
b101 !
b101 *
b101 (
1#
b110100 %
#980
0#
b110011 %
#1000
1#
b110010 %
0"
#1020
0#
b110001 %
#1040
1#
b110000 %
#1060
0#
b101111 %
#1080
1#
b101110 %
#1100
b110 '
0#
b101101 %
1"
#1120
b110 )
1#
b101100 %
#1140
0#
b101011 %
#1160
b110 !
b110 *
b110 (
1#
b101010 %
#1180
0#
b101001 %
#1200
1#
b101000 %
0"
#1220
0#
b100111 %
#1240
1#
b100110 %
#1260
0#
b100101 %
#1280
1#
b100100 %
#1300
b111 '
0#
b100011 %
1"
#1320
b0 )
1#
b100010 %
#1340
0#
b100001 %
#1360
b0 !
b0 *
b0 (
1#
b100000 %
#1380
0#
b11111 %
#1400
1#
b11110 %
0"
#1420
0#
b11101 %
#1440
1#
b11100 %
#1460
0#
b11011 %
#1480
1#
b11010 %
#1500
b1000 '
0#
b11001 %
1"
#1520
1#
b11000 %
#1540
0#
b10111 %
#1560
1#
b10110 %
#1580
0#
b10101 %
#1600
1#
b10100 %
0"
#1620
0#
b10011 %
#1640
1#
b10010 %
#1660
0#
b10001 %
#1680
1#
b10000 %
#1700
b1001 '
0#
b1111 %
1"
#1720
1#
b1110 %
#1740
0#
b1101 %
#1760
1#
b1100 %
#1780
0#
b1011 %
#1800
1#
b1010 %
0"
#1820
0#
b1001 %
#1840
1#
b1000 %
#1860
0#
b111 %
#1880
1#
b110 %
#1900
b1010 '
0#
b101 %
1"
#1920
1#
b100 %
#1940
0#
b11 %
#1960
1#
b10 %
#1980
0#
b1 %
#2000
1#
b0 %
0"
